{
  "images" : [
    {
      "idiom" : "universal",
      "filename" : "Opening Screenshot (1000px).jpg"
    }
  ],
  "info" : {
    "version" : 1,
    "author" : "xcode"
  },
  "properties" : {
    "auto-scaling" : "auto"
  }
}